{
  "development": {
    "username": "root",
    "password": "password",
    "database": "job_dashboard",
    "host": "job_dashboard_fs_mysql",
    "dialect": "mysql",
    "port":3306,
    "operatorsAliases": false,
    "raw": true
  },
  "test": {
    "username": "root",
    "password": null,
    "database": "database_test",
    "host": "127.0.0.1",
    "dialect": "mysql"
  },
  "production": {
    "username": "root",
    "password": null,
    "database": "database_production",
    "host": "127.0.0.1",
    "dialect": "mysql"
  }
}
